DATAPATH/REG8/simulation/qsim/REG8.msim.vcd
$comment
	File created using the following command:
		vcd file REG8.msim.vcd -direction
$end
$date
	Wed Oct 16 12:17:58 2019
$end
$version
	ModelSim Version 10.1d
$end
$timescale
	1ps
$end
$scope module REG8_vlg_vec_tst $end
$var reg 1 ! clk $end
$var reg 1 " clr $end
$var reg 8 # data_in [7:0] $end
$var reg 1 $ load $end
$var wire 1 % data_out [7] $end
$var wire 1 & data_out [6] $end
$var wire 1 ' data_out [5] $end
$var wire 1 ( data_out [4] $end
$var wire 1 ) data_out [3] $end
$var wire 1 * data_out [2] $end
$var wire 1 + data_out [1] $end
$var wire 1 , data_out [0] $end
$var wire 1 - sampler $end
$scope module i1 $end
$var wire 1 . gnd $end
$var wire 1 / vcc $end
$var wire 1 0 unknown $end
$var tri1 1 1 devclrn $end
$var tri1 1 2 devpor $end
$var tri1 1 3 devoe $end
$var wire 1 4 clk~combout $end
$var wire 1 5 clr~combout $end
$var wire 1 6 load~combout $end
$var wire 1 7 data_out[0]~reg0_regout $end
$var wire 1 8 data_out[1]~reg0_regout $end
$var wire 1 9 data_out[2]~reg0_regout $end
$var wire 1 : data_out[3]~reg0_regout $end
$var wire 1 ; data_out[4]~reg0_regout $end
$var wire 1 < data_out[5]~reg0_regout $end
$var wire 1 = data_out[6]~reg0_regout $end
$var wire 1 > data_out[7]~reg0_regout $end
$var wire 1 ? data_in~combout [7] $end
$var wire 1 @ data_in~combout [6] $end
$var wire 1 A data_in~combout [5] $end
$var wire 1 B data_in~combout [4] $end
$var wire 1 C data_in~combout [3] $end
$var wire 1 D data_in~combout [2] $end
$var wire 1 E data_in~combout [1] $end
$var wire 1 F data_in~combout [0] $end
$upscope $end
$upscope $end
$enddefinitions $end
#0
$dumpvars
0!
1"
b10101000 #
0$
0,
0+
0*
0)
0(
0'
0&
0%
x-
0.
1/
x0
11
12
13
04
15
06
07
08
09
0:
0;
0<
0=
0>
0F
0E
0D
1C
0B
1A
0@
1?
$end
#40000
0"
05
0-
#50000
1!
14
1-
#100000
0!
04
0-
#150000
1!
14
1-
#180000
1$
16
0-
#200000
0!
04
1-
#250000
1!
14
0-
1>
1<
1:
1%
1'
1)
#260000
0$
06
1-
#300000
0!
04
0-
#350000
1!
14
1-
#400000
0!
04
0-
#440000
1"
15
1-
0>
0<
0:
0%
0'
0)
#450000
1!
14
0-
#480000
0"
05
1-
#500000
0!
04
0-
#550000
1!
14
1-
#600000
1"
0!
15
04
0-
#620000
1$
16
1-
#650000
1!
14
0-
#680000
0"
05
1-
#700000
0$
0!
06
04
0-
#750000
1!
14
1-
#800000
0!
04
0-
#850000
1!
14
1-
#900000
0!
04
0-
#950000
1!
14
1-
