Microcontrolador/REG16/simulation/qsim/REG16.msim.vcd
$comment
	File created using the following command:
		vcd file REG16.msim.vcd -direction
$end
$date
	Wed Oct 16 12:32:42 2019
$end
$version
	ModelSim Version 10.1d
$end
$timescale
	1ps
$end
$scope module REG16_vlg_vec_tst $end
$var reg 1 ! clk $end
$var reg 1 " clr $end
$var reg 16 # data_in [15:0] $end
$var reg 1 $ load $end
$var wire 1 % data_out [15] $end
$var wire 1 & data_out [14] $end
$var wire 1 ' data_out [13] $end
$var wire 1 ( data_out [12] $end
$var wire 1 ) data_out [11] $end
$var wire 1 * data_out [10] $end
$var wire 1 + data_out [9] $end
$var wire 1 , data_out [8] $end
$var wire 1 - data_out [7] $end
$var wire 1 . data_out [6] $end
$var wire 1 / data_out [5] $end
$var wire 1 0 data_out [4] $end
$var wire 1 1 data_out [3] $end
$var wire 1 2 data_out [2] $end
$var wire 1 3 data_out [1] $end
$var wire 1 4 data_out [0] $end
$var wire 1 5 sampler $end
$scope module i1 $end
$var wire 1 6 gnd $end
$var wire 1 7 vcc $end
$var wire 1 8 unknown $end
$var tri1 1 9 devclrn $end
$var tri1 1 : devpor $end
$var tri1 1 ; devoe $end
$var wire 1 < clk~combout $end
$var wire 1 = clr~combout $end
$var wire 1 > load~combout $end
$var wire 1 ? data_out[0]~reg0_regout $end
$var wire 1 @ data_out[1]~reg0_regout $end
$var wire 1 A data_out[2]~reg0_regout $end
$var wire 1 B data_out[3]~reg0_regout $end
$var wire 1 C data_out[4]~reg0_regout $end
$var wire 1 D data_out[5]~reg0_regout $end
$var wire 1 E data_out[6]~reg0_regout $end
$var wire 1 F data_out[7]~reg0_regout $end
$var wire 1 G data_out[8]~reg0_regout $end
$var wire 1 H data_out[9]~reg0_regout $end
$var wire 1 I data_out[10]~reg0_regout $end
$var wire 1 J data_out[11]~reg0_regout $end
$var wire 1 K data_out[12]~reg0_regout $end
$var wire 1 L data_out[13]~reg0_regout $end
$var wire 1 M data_out[14]~reg0_regout $end
$var wire 1 N data_out[15]~reg0_regout $end
$var wire 1 O data_in~combout [15] $end
$var wire 1 P data_in~combout [14] $end
$var wire 1 Q data_in~combout [13] $end
$var wire 1 R data_in~combout [12] $end
$var wire 1 S data_in~combout [11] $end
$var wire 1 T data_in~combout [10] $end
$var wire 1 U data_in~combout [9] $end
$var wire 1 V data_in~combout [8] $end
$var wire 1 W data_in~combout [7] $end
$var wire 1 X data_in~combout [6] $end
$var wire 1 Y data_in~combout [5] $end
$var wire 1 Z data_in~combout [4] $end
$var wire 1 [ data_in~combout [3] $end
$var wire 1 \ data_in~combout [2] $end
$var wire 1 ] data_in~combout [1] $end
$var wire 1 ^ data_in~combout [0] $end
$upscope $end
$upscope $end
$enddefinitions $end
#0
$dumpvars
0!
1"
b1010110000010 #
0$
04
03
02
01
00
0/
0.
0-
0,
0+
0*
0)
0(
0'
0&
0%
x5
06
17
x8
19
1:
1;
0<
1=
0>
0?
0@
0A
0B
0C
0D
0E
0F
0G
0H
0I
0J
0K
0L
0M
0N
0^
1]
0\
0[
0Z
0Y
0X
1W
1V
0U
1T
0S
1R
0Q
0P
0O
$end
#50000
1!
b1001010110000010 #
b1101010110000010 #
b1111010110000010 #
b1111011110000010 #
b1111011111000010 #
b1111011111100010 #
b1111011111101010 #
b1111011111101000 #
1<
0]
1[
1Y
1X
1U
1Q
1P
1O
05
#70000
0"
0=
15
#100000
b1111011111111000 #
b1111011111111100 #
b1111011111111101 #
0!
b1011011111111101 #
b1001011111111101 #
b1001010111111101 #
b1001010110111101 #
b1001010110011101 #
b1001010110011111 #
1^
1]
1\
1Z
0Y
0X
0U
0Q
0P
0<
05
#120000
1$
1>
15
#150000
b1001000110011111 #
b1001000100011111 #
b1001000100010111 #
b1001000100010011 #
1!
b1101000100010011 #
b1111000100010011 #
b1111001100010011 #
0\
0[
0W
1U
0T
1Q
1P
1<
05
1N
1M
1L
1K
1H
1G
1C
1@
1?
1%
1&
1'
1(
1+
1,
10
13
14
#200000
b1111101100010011 #
b1111101100000011 #
b1111101100001011 #
0!
b1111100100001011 #
1[
0Z
0U
1S
0<
15
#250000
b1110100100001011 #
b1110100000001011 #
b1110100001001011 #
b1110100001001111 #
b1110000001001111 #
b1110000001011111 #
1!
b1110001001011111 #
1\
1Z
1X
0V
1U
0S
0R
1<
05
0K
0G
1E
1B
1A
0(
0,
1.
11
12
#280000
0$
0>
15
#300000
b110001001011111 #
b110001001111111 #
b100001001111111 #
b100001001110111 #
b101001001110111 #
b101001001110011 #
b101101001110011 #
0!
b101100001110011 #
0\
0[
1Y
0U
1S
1R
0Q
0O
0<
05
#330000
1"
1=
15
0N
0M
0L
0H
0E
0C
0B
0A
0@
0?
0%
0&
0'
0+
0.
00
01
02
03
04
#350000
b101110001110011 #
b101110000110011 #
b1101110000110011 #
b1101110000111011 #
b1100110000111011 #
b1100010000111011 #
1!
1[
0X
1T
0S
0R
1O
1<
05
#400000
b1100010000111010 #
b1110010000111010 #
b1110011000111010 #
b1110001000111010 #
b1110001001111010 #
b110001001111010 #
b110101001111010 #
0!
0^
1X
1U
0T
1S
1Q
0O
0<
15
#420000
0"
0=
05
#450000
b110101011111010 #
b110101011011010 #
b110101011011110 #
b110101011010110 #
b111101011010110 #
b111101011010111 #
b101101011010111 #
b101100011010111 #
b101110011010111 #
b101010011010111 #
1!
1^
1\
0[
0Y
1W
0U
1T
0S
1R
0Q
1<
15
#500000
b1010011010111 #
b1010011000111 #
b1010011000011 #
b10011000011 #
b10010011000011 #
b10011011000011 #
b10001011000011 #
0!
0\
0Z
1U
0T
0R
1Q
0P
0<
05
#540000
1$
1>
15
#550000
b10001011000001 #
b10001111000001 #
b10001110000001 #
b1010001110000001 #
b1010001110001001 #
b1010001110001000 #
b1010101110001000 #
b1010101110001100 #
b1011101110001100 #
b1001101110001100 #
b1001100110001100 #
b1001110110001100 #
1!
0^
0]
1\
1[
0X
1V
0U
1T
1S
1R
0Q
1O
1<
05
1N
1K
1J
1I
1G
1F
1B
1A
1%
1(
1)
1*
1,
1-
11
12
#580000
1"
1=
15
0N
0K
0J
0I
0G
0F
0B
0A
0%
0(
0)
0*
0,
0-
01
02
#600000
b1001110100001100 #
b1001110100101100 #
b1101110100101100 #
b1101110100101110 #
b1101110000101110 #
b1101110000100110 #
b1101110000100111 #
b1101010000100111 #
b1100010000100111 #
b1100011000100111 #
b1100001000100111 #
0!
1^
1]
0[
1Y
0W
0V
1U
0T
0S
0R
1P
0<
05
#650000
b100001000100111 #
b100001000100011 #
b110001000100011 #
b110001000000011 #
b10001000000011 #
b10001000000001 #
b10001100000001 #
b10001100001001 #
b10001100001000 #
b10101100001000 #
b11101100001000 #
b11100100001000 #
b11110100001000 #
1!
0^
0]
0\
1[
0Y
1V
0U
1T
1S
1R
1Q
0P
0O
1<
15
#680000
0"
0=
05
#700000
b11110101001000 #
b1110101001000 #
b1110101001010 #
b1110001001010 #
b1110001000010 #
b1010001000010 #
b1011001000010 #
b1001001000010 #
0!
1]
0[
1X
0V
1U
0T
0S
0Q
0<
15
#720000
0$
0>
05
#750000
b1001001001000010 #
b1001001001100010 #
b1101001001100010 #
b1101001001100011 #
b1100001001100011 #
b1100001101100011 #
b1100001101101011 #
b1100000101101011 #
b1100010101101011 #
1!
1^
1[
1Y
1V
0U
1T
0R
1P
1O
1<
15
#800000
b1100010111101011 #
b1110010111101011 #
b110010111101011 #
b10010111101011 #
b10010111100011 #
0!
0[
1W
1Q
0P
0O
0<
05
#850000
b10010111110011 #
b10010111110001 #
b10110111110001 #
b10110111010001 #
b10110011010001 #
b110011010001 #
b1000110011010001 #
b1100110011010001 #
1!
0]
1Z
0Y
0V
1S
0Q
1P
1O
1<
15
#900000
b1100110010010001 #
b1100110010010000 #
b1100111010010000 #
b1100101010010000 #
b1100101000010000 #
b1100101000000000 #
b1100101000100000 #
b100101000100000 #
b101000100000 #
0!
0^
0Z
1Y
0X
0W
1U
0T
0P
0O
0<
05
#950000
b101000100100 #
b1101000100100 #
b1101000101100 #
b1101000101110 #
b1001000101110 #
b1001100101110 #
b11001100101110 #
b11001100111110 #
b111001100111110 #
1!
1]
1\
1[
1Z
1V
0S
1R
1Q
1P
1<
15
