DATAPATH/ALU/simulation/qsim/ALU.msim.vcd
$comment
	File created using the following command:
		vcd file ALU.msim.vcd -direction
$end
$date
	Mon Oct 14 11:44:31 2019
$end
$version
	ModelSim Version 10.1d
$end
$timescale
	1ps
$end
$scope module ALU_vlg_vec_tst $end
$var reg 1 ! clk $end
$var reg 1 " clr $end
$var reg 4 # op_sel [3:0] $end
$var reg 8 $ val1 [7:0] $end
$var reg 8 % val2 [7:0] $end
$var wire 1 & op_out [7] $end
$var wire 1 ' op_out [6] $end
$var wire 1 ( op_out [5] $end
$var wire 1 ) op_out [4] $end
$var wire 1 * op_out [3] $end
$var wire 1 + op_out [2] $end
$var wire 1 , op_out [1] $end
$var wire 1 - op_out [0] $end
$var wire 1 . sampler $end
$scope module i1 $end
$var wire 1 / gnd $end
$var wire 1 0 vcc $end
$var wire 1 1 unknown $end
$var tri1 1 2 devclrn $end
$var tri1 1 3 devpor $end
$var tri1 1 4 devoe $end
$var wire 1 5 Add0~0_combout $end
$var wire 1 6 Add0~5_combout $end
$var wire 1 7 Add0~8_combout $end
$var wire 1 8 Add0~11_combout $end
$var wire 1 9 Add0~14_combout $end
$var wire 1 : Add0~17_combout $end
$var wire 1 ; Add0~20_combout $end
$var wire 1 < Add0~23_combout $end
$var wire 1 = Mux0~0_combout $end
$var wire 1 > Mux0~1_combout $end
$var wire 1 ? Mux0~5_combout $end
$var wire 1 @ Add0~2_cout $end
$var wire 1 A Add0~3_combout $end
$var wire 1 B Mux0~6_combout $end
$var wire 1 C Mux0~3_combout $end
$var wire 1 D Mux0~4_combout $end
$var wire 1 E Mux8~0_combout $end
$var wire 1 F Mux1~0_combout $end
$var wire 1 G Mux0~2_combout $end
$var wire 1 H Add0~4 $end
$var wire 1 I Add0~6_combout $end
$var wire 1 J Mux1~2_combout $end
$var wire 1 K Mux1~3_combout $end
$var wire 1 L Mux1~1_combout $end
$var wire 1 M Mux2~0_combout $end
$var wire 1 N Mux2~2_combout $end
$var wire 1 O Add0~7 $end
$var wire 1 P Add0~9_combout $end
$var wire 1 Q Mux2~3_combout $end
$var wire 1 R Mux2~1_combout $end
$var wire 1 S Mux3~0_combout $end
$var wire 1 T Add0~10 $end
$var wire 1 U Add0~12_combout $end
$var wire 1 V Mux3~2_combout $end
$var wire 1 W Mux3~3_combout $end
$var wire 1 X Mux3~1_combout $end
$var wire 1 Y Mux4~0_combout $end
$var wire 1 Z Mux4~2_combout $end
$var wire 1 [ Add0~13 $end
$var wire 1 \ Add0~15_combout $end
$var wire 1 ] Mux4~3_combout $end
$var wire 1 ^ Mux4~1_combout $end
$var wire 1 _ Mux5~0_combout $end
$var wire 1 ` Add0~16 $end
$var wire 1 a Add0~18_combout $end
$var wire 1 b Mux5~2_combout $end
$var wire 1 c Mux5~3_combout $end
$var wire 1 d Mux5~1_combout $end
$var wire 1 e Mux6~0_combout $end
$var wire 1 f Add0~19 $end
$var wire 1 g Add0~21_combout $end
$var wire 1 h Mux6~1_combout $end
$var wire 1 i Mux6~2_combout $end
$var wire 1 j Mux6~3_combout $end
$var wire 1 k Mux7~0_combout $end
$var wire 1 l Add0~22 $end
$var wire 1 m Add0~24_combout $end
$var wire 1 n Mux7~2_combout $end
$var wire 1 o Mux7~3_combout $end
$var wire 1 p Mux7~1_combout $end
$var wire 1 q val2~combout [7] $end
$var wire 1 r val2~combout [6] $end
$var wire 1 s val2~combout [5] $end
$var wire 1 t val2~combout [4] $end
$var wire 1 u val2~combout [3] $end
$var wire 1 v val2~combout [2] $end
$var wire 1 w val2~combout [1] $end
$var wire 1 x val2~combout [0] $end
$var wire 1 y val1~combout [7] $end
$var wire 1 z val1~combout [6] $end
$var wire 1 { val1~combout [5] $end
$var wire 1 | val1~combout [4] $end
$var wire 1 } val1~combout [3] $end
$var wire 1 ~ val1~combout [2] $end
$var wire 1 !! val1~combout [1] $end
$var wire 1 "! val1~combout [0] $end
$var wire 1 #! result [7] $end
$var wire 1 $! result [6] $end
$var wire 1 %! result [5] $end
$var wire 1 &! result [4] $end
$var wire 1 '! result [3] $end
$var wire 1 (! result [2] $end
$var wire 1 )! result [1] $end
$var wire 1 *! result [0] $end
$var wire 1 +! op_sel~combout [3] $end
$var wire 1 ,! op_sel~combout [2] $end
$var wire 1 -! op_sel~combout [1] $end
$var wire 1 .! op_sel~combout [0] $end
$upscope $end
$upscope $end
$enddefinitions $end
#0
$dumpvars
0!
0"
b111 #
b111 $
b101 %
0-
1,
0+
0*
0)
0(
0'
0&
x.
0/
10
x1
12
13
14
05
16
07
18
19
1:
1;
1<
0=
1>
0?
1@
0A
0B
0C
0D
0E
0F
1G
0H
1I
0J
1K
1L
0M
0N
1O
0P
0Q
0R
0S
0T
0U
0V
0W
0X
0Y
0Z
1[
0\
0]
0^
0_
0`
0a
0b
0c
0d
0e
1f
0g
0h
0i
0j
0k
0l
0m
0n
0o
0p
1x
0w
1v
0u
0t
0s
0r
0q
1"!
1!!
1~
0}
0|
0{
0z
0y
0*!
1)!
0(!
0'!
0&!
0%!
0$!
0#!
1.!
1-!
1,!
0+!
$end
#5000
1!
0.
#10000
0!
1.
#15000
1!
0.
#20000
0!
1.
#25000
1!
0.
#30000
0!
1.
#35000
1!
0.
#40000
0!
1.
#45000
1!
0.
#50000
0!
1.
#55000
1!
0.
#60000
0!
1.
#65000
1!
0.
#70000
0!
1.
#75000
1!
0.
#80000
0!
1.
#85000
1!
0.
#90000
0!
1.
#95000
1!
0.
#100000
0!
1.
#105000
1!
0.
#110000
0!
1.
#115000
1!
0.
#120000
0!
1.
#125000
1!
0.
#130000
0!
1.
#135000
1!
0.
#140000
0!
1.
#145000
1!
0.
#150000
0!
1.
#155000
1!
0.
#160000
0!
1.
#165000
1!
0.
#170000
0!
1.
#175000
1!
0.
#180000
0!
1.
#185000
1!
0.
#190000
0!
1.
#195000
1!
0.
#200000
0!
1.
#205000
1!
0.
#210000
0!
1.
#215000
1!
0.
#220000
0!
1.
#225000
1!
0.
#230000
0!
1.
#235000
1!
0.
#240000
0!
1.
#245000
1!
0.
#250000
0!
1.
#255000
1!
0.
#260000
0!
1.
#265000
1!
0.
#270000
0!
1.
#275000
1!
0.
#280000
0!
1.
#285000
1!
0.
#290000
0!
1.
#295000
1!
0.
#300000
0!
1.
#305000
1!
0.
#310000
0!
1.
#315000
1!
0.
#320000
0!
1.
#325000
1!
0.
#330000
0!
1.
#335000
1!
0.
#340000
0!
1.
#345000
1!
0.
#350000
0!
1.
#355000
1!
0.
#360000
0!
1.
#365000
1!
0.
#370000
0!
1.
#375000
1!
0.
#380000
0!
1.
#385000
1!
0.
#390000
0!
1.
#395000
1!
0.
#400000
0!
1.
#405000
1!
0.
#410000
0!
1.
#415000
1!
0.
#420000
0!
1.
#425000
1!
0.
#430000
0!
1.
#435000
1!
0.
#440000
0!
1.
#445000
1!
0.
#450000
0!
1.
#455000
1!
0.
#460000
0!
1.
#465000
1!
0.
#470000
0!
1.
#475000
1!
0.
#480000
0!
1.
#485000
1!
0.
#490000
0!
1.
#495000
1!
0.
#500000
0!
1.
#505000
1!
0.
#510000
0!
1.
#515000
1!
0.
#520000
0!
1.
#525000
1!
0.
#530000
0!
1.
#535000
1!
0.
#540000
0!
1.
#545000
1!
0.
#550000
0!
1.
#555000
1!
0.
#560000
0!
1.
#565000
1!
0.
#570000
0!
1.
#575000
1!
0.
#580000
0!
1.
#585000
1!
0.
#590000
0!
1.
#595000
1!
0.
#600000
0!
1.
#605000
1!
0.
#610000
0!
1.
#615000
1!
0.
#620000
0!
1.
#625000
1!
0.
#630000
0!
1.
#635000
1!
0.
#640000
0!
1.
#645000
1!
0.
#650000
0!
1.
#655000
1!
0.
#660000
0!
1.
#665000
1!
0.
#670000
0!
1.
#675000
1!
0.
#680000
0!
1.
#685000
1!
0.
#690000
0!
1.
#695000
1!
0.
#700000
0!
1.
#705000
1!
0.
#710000
0!
1.
#715000
1!
0.
#720000
0!
1.
#725000
1!
0.
#730000
0!
1.
#735000
1!
0.
#740000
0!
1.
#745000
1!
0.
#750000
0!
1.
#755000
1!
0.
#760000
0!
1.
#765000
1!
0.
#770000
0!
1.
#775000
1!
0.
#780000
0!
1.
#785000
1!
0.
#790000
0!
1.
#795000
1!
0.
#800000
0!
1.
#805000
1!
0.
#810000
0!
1.
#815000
1!
0.
#820000
0!
1.
#825000
1!
0.
#830000
0!
1.
#835000
1!
0.
#840000
0!
1.
#845000
1!
0.
#850000
0!
1.
#855000
1!
0.
#860000
0!
1.
#865000
1!
0.
#870000
0!
1.
#875000
1!
0.
#880000
0!
1.
#885000
1!
0.
#890000
0!
1.
#895000
1!
0.
#900000
0!
1.
#905000
1!
0.
#910000
0!
1.
#915000
1!
0.
#920000
0!
1.
#925000
1!
0.
#930000
0!
1.
#935000
1!
0.
#940000
0!
1.
#945000
1!
0.
#950000
0!
1.
#955000
1!
0.
#960000
0!
1.
#965000
1!
0.
#970000
0!
1.
#975000
1!
0.
#980000
0!
1.
#985000
1!
0.
#990000
0!
1.
#995000
1!
0.
